<?xml version="1.0" encoding="UTF-8" standalone="no"?>
<!-- Created with Inkscape (http://www.inkscape.org/) -->

<svg
   xmlns:dc="http://purl.org/dc/elements/1.1/"
   xmlns:cc="http://creativecommons.org/ns#"
   xmlns:rdf="http://www.w3.org/1999/02/22-rdf-syntax-ns#"
   xmlns:svg="http://www.w3.org/2000/svg"
   xmlns="http://www.w3.org/2000/svg"
   xmlns:xlink="http://www.w3.org/1999/xlink"
   xmlns:sodipodi="http://sodipodi.sourceforge.net/DTD/sodipodi-0.dtd"
   xmlns:inkscape="http://www.inkscape.org/namespaces/inkscape"
   width="967.42065"
   height="516.62811"
   id="svg2"
   version="1.1"
   inkscape:version="0.48.5 r10040"
   sodipodi:docname="tuxedo_workflow.svg">
  <defs
     id="defs4">
    <marker
       inkscape:stockid="Arrow2Send"
       orient="auto"
       refY="0"
       refX="0"
       id="Arrow2Send"
       style="overflow:visible">
      <path
         id="path4312"
         style="fill-rule:evenodd;stroke-width:0.625;stroke-linejoin:round"
         d="M 8.7185878,4.0337352 -2.2072895,0.01601326 8.7185884,-4.0017078 c -1.7454984,2.3720609 -1.7354408,5.6174519 -6e-7,8.035443 z"
         transform="matrix(-0.3,0,0,-0.3,0.69,0)"
         inkscape:connector-curvature="0" />
    </marker>
    <marker
       inkscape:stockid="Arrow1Mend"
       orient="auto"
       refY="0"
       refX="0"
       id="Arrow1Mend"
       style="overflow:visible">
      <path
         id="path4288"
         d="M 0,0 5,-5 -12.5,0 5,5 0,0 z"
         style="fill-rule:evenodd;stroke:#000000;stroke-width:1pt"
         transform="matrix(-0.4,0,0,-0.4,-4,0)"
         inkscape:connector-curvature="0" />
    </marker>
    <marker
       inkscape:stockid="Arrow2Lend"
       orient="auto"
       refY="0"
       refX="0"
       id="Arrow2Lend"
       style="overflow:visible">
      <path
         id="path3948"
         style="fill-rule:evenodd;stroke-width:0.625;stroke-linejoin:round"
         d="M 8.7185878,4.0337352 -2.2072895,0.01601326 8.7185884,-4.0017078 c -1.7454984,2.3720609 -1.7354408,5.6174519 -6e-7,8.035443 z"
         transform="matrix(-1.1,0,0,-1.1,-1.1,0)"
         inkscape:connector-curvature="0" />
    </marker>
    <marker
       inkscape:stockid="Arrow2Lend"
       orient="auto"
       refY="0"
       refX="0"
       id="Arrow2Lend-1"
       style="overflow:visible">
      <path
         inkscape:connector-curvature="0"
         id="path3948-0"
         style="fill-rule:evenodd;stroke-width:0.625;stroke-linejoin:round"
         d="M 8.7185878,4.0337352 -2.2072895,0.01601326 8.7185884,-4.0017078 c -1.7454984,2.3720609 -1.7354408,5.6174519 -6e-7,8.035443 z"
         transform="matrix(-1.1,0,0,-1.1,-1.1,0)" />
    </marker>
    <marker
       inkscape:stockid="Arrow2Lend"
       orient="auto"
       refY="0"
       refX="0"
       id="Arrow2Lend-0"
       style="overflow:visible">
      <path
         inkscape:connector-curvature="0"
         id="path3948-5"
         style="fill-rule:evenodd;stroke-width:0.625;stroke-linejoin:round"
         d="M 8.7185878,4.0337352 -2.2072895,0.01601326 8.7185884,-4.0017078 c -1.7454984,2.3720609 -1.7354408,5.6174519 -6e-7,8.035443 z"
         transform="matrix(-1.1,0,0,-1.1,-1.1,0)" />
    </marker>
    <marker
       inkscape:stockid="Arrow2Lend"
       orient="auto"
       refY="0"
       refX="0"
       id="Arrow2Lend-8"
       style="overflow:visible">
      <path
         inkscape:connector-curvature="0"
         id="path3948-7"
         style="fill-rule:evenodd;stroke-width:0.625;stroke-linejoin:round"
         d="M 8.7185878,4.0337352 -2.2072895,0.01601326 8.7185884,-4.0017078 c -1.7454984,2.3720609 -1.7354408,5.6174519 -6e-7,8.035443 z"
         transform="matrix(-1.1,0,0,-1.1,-1.1,0)" />
    </marker>
    <marker
       inkscape:stockid="Arrow2Lend"
       orient="auto"
       refY="0"
       refX="0"
       id="Arrow2Lend-7"
       style="overflow:visible">
      <path
         inkscape:connector-curvature="0"
         id="path3948-2"
         style="fill-rule:evenodd;stroke-width:0.625;stroke-linejoin:round"
         d="M 8.7185878,4.0337352 -2.2072895,0.01601326 8.7185884,-4.0017078 c -1.7454984,2.3720609 -1.7354408,5.6174519 -6e-7,8.035443 z"
         transform="matrix(-1.1,0,0,-1.1,-1.1,0)" />
    </marker>
  </defs>
  <sodipodi:namedview
     id="base"
     pagecolor="#ffffff"
     bordercolor="#666666"
     borderopacity="1.0"
     inkscape:pageopacity="0.0"
     inkscape:pageshadow="2"
     inkscape:zoom="0.98994949"
     inkscape:cx="449.82422"
     inkscape:cy="186.63052"
     inkscape:document-units="px"
     inkscape:current-layer="layer1"
     showgrid="true"
     inkscape:window-width="2539"
     inkscape:window-height="1392"
     inkscape:window-x="21"
     inkscape:window-y="23"
     inkscape:window-maximized="1"
     showguides="true"
     inkscape:guide-bbox="true"
     fit-margin-top="0"
     fit-margin-left="0"
     fit-margin-right="0"
     fit-margin-bottom="0">
    <inkscape:grid
       type="xygrid"
       id="grid2985"
       empspacing="5"
       visible="true"
       enabled="true"
       snapvisiblegridlinesonly="true"
       originx="-21.552px"
       originy="-93.479935px" />
  </sodipodi:namedview>
  <metadata
     id="metadata7">
    <rdf:RDF>
      <cc:Work
         rdf:about="">
        <dc:format>image/svg+xml</dc:format>
        <dc:type
           rdf:resource="http://purl.org/dc/dcmitype/StillImage" />
        <dc:title />
      </cc:Work>
    </rdf:RDF>
  </metadata>
  <g
     inkscape:label="Layer 1"
     inkscape:groupmode="layer"
     id="layer1"
     transform="translate(-21.552,-442.25418)">
    <use
       x="0"
       y="0"
       xlink:href="#path4271"
       id="use4273"
       transform="translate(131,0)"
       width="1052.3622"
       height="744.09448" />
    <path
       style="fill:none;stroke:#000000;stroke-width:1;stroke-linecap:butt;stroke-linejoin:miter;stroke-miterlimit:4;stroke-opacity:1;stroke-dasharray:4, 4;stroke-dashoffset:0"
       d="m 166.62206,482.36218 0,410"
       id="path4271"
       inkscape:connector-curvature="0" />
    <g
       id="g4278"
       transform="translate(-4,0)" />
    <path
       sodipodi:type="arc"
       style="fill:#f2f2f2;fill-opacity:1;fill-rule:nonzero;stroke:#282828;stroke-width:2;stroke-linecap:round;stroke-linejoin:round;stroke-miterlimit:4;stroke-opacity:1;stroke-dasharray:none;stroke-dashoffset:0"
       id="path4393"
       sodipodi:cx="505"
       sodipodi:cy="134.09448"
       sodipodi:rx="35"
       sodipodi:ry="15"
       d="m 540,134.09448 c 0,8.28427 -15.67003,15 -35,15 -19.32997,0 -35,-6.71573 -35,-15 0,-8.28427 15.67003,-15 35,-15 19.32997,0 35,6.71573 35,15 z"
       transform="translate(15,148.2677)" />
    <g
       id="g4487"
       transform="translate(-322,108.16199)">
      <use
         height="744.09448"
         width="1052.3622"
         transform="matrix(0.74285725,0,0,0.74285725,160.79846,340.10739)"
         id="use4465"
         xlink:href="#path4393"
         y="0"
         x="0" />
      <g
         transform="translate(0.2480469,16.012152)"
         id="g4369">
        <text
           xml:space="preserve"
           style="font-size:10px;font-style:normal;font-variant:normal;font-weight:bold;font-stretch:normal;line-height:125%;letter-spacing:0px;word-spacing:0px;fill:#000000;fill-opacity:1;stroke:none;font-family:Source Sans Pro;-inkscape-font-specification:Source Sans Pro Bold"
           x="532.05988"
           y="536.43506"
           id="text3014"
           sodipodi:linespacing="125%"><tspan
             sodipodi:role="line"
             id="tspan3016"
             x="532.05988"
             y="536.43506">tophat</tspan></text>
      </g>
    </g>
    <g
       id="g4622"
       transform="translate(-332,108.16199)">
      <use
         x="0"
         y="0"
         xlink:href="#use4465"
         id="use4480"
         transform="translate(197.91577,0)"
         width="1052.3622"
         height="744.09448" />
      <g
         transform="translate(-19.999995,-2.4999878)"
         id="g4475">
        <text
           xml:space="preserve"
           style="font-size:10px;font-style:normal;font-variant:normal;font-weight:bold;font-stretch:normal;line-height:125%;letter-spacing:0px;word-spacing:0px;fill:#000000;fill-opacity:1;stroke:none;font-family:Source Sans Pro;-inkscape-font-specification:Source Sans Pro Bold"
           x="745.87976"
           y="555.91217"
           id="text3018"
           sodipodi:linespacing="125%"><tspan
             sodipodi:role="line"
             id="tspan3020"
             x="745.87976"
             y="555.91217">cufflinks</tspan></text>
      </g>
    </g>
    <g
       id="g4341"
       transform="translate(-78,79.034617)">
      <path
         id="rect4388-3-7"
         transform="translate(-4,0)"
         style="fill:#f2f2f2;fill-opacity:1;fill-rule:nonzero;stroke:#282828;stroke-width:1;stroke-linecap:round;stroke-linejoin:round;stroke-miterlimit:4;stroke-opacity:1;stroke-dashoffset:0"
         d="m 173.53184,521.36218 56.80896,0 2.39328,2.12737 0,13.80895 27.73408,0.0637 0,84.87264 c 0,1.17856 -0.9488,2.12736 -2.12736,2.12736 l -82.74528,0 c -1.17856,0 -2.06368,-0.9488 -2.06368,-2.12736 0,-36.29089 0,-64.58177 0,-100.87266 z"
         inkscape:connector-curvature="0"
         sodipodi:nodetypes="cccccssscc" />
      <text
         xml:space="preserve"
         style="font-size:9px;font-style:normal;font-variant:normal;font-weight:bold;font-stretch:normal;line-height:125%;letter-spacing:0px;word-spacing:0px;fill:#000000;fill-opacity:1;stroke:none;font-family:Source Code Pro;-inkscape-font-specification:Source Code Pro Bold"
         x="174.46207"
         y="531.77869"
         id="text4250"
         sodipodi:linespacing="125%"><tspan
           sodipodi:role="line"
           id="tspan4252"
           x="174.46207"
           y="531.77869">rna_reads</tspan></text>
      <text
         sodipodi:linespacing="125%"
         id="text3030"
         y="620.05542"
         x="173"
         style="font-size:9px;font-style:normal;font-variant:normal;font-weight:bold;font-stretch:normal;line-height:125%;letter-spacing:0px;word-spacing:0px;fill:#5fbcd3;fill-opacity:1;stroke:none;font-family:Source Code Pro;-inkscape-font-specification:Source Code Pro Bold"
         xml:space="preserve"><tspan
           style="font-size:9px;font-style:normal;font-variant:normal;font-weight:bold;font-stretch:normal;fill:#5fbcd3;font-family:Source Code Pro;-inkscape-font-specification:Source Code Pro Bold"
           y="620.05542"
           x="173"
           id="tspan3032"
           sodipodi:role="line">SRR033835.fastq</tspan></text>
      <text
         sodipodi:linespacing="125%"
         id="text3034"
         y="547.73071"
         x="173"
         style="font-size:9px;font-style:normal;font-variant:normal;font-weight:bold;font-stretch:normal;line-height:125%;letter-spacing:0px;word-spacing:0px;fill:#ff7f2a;fill-opacity:1;stroke:none;font-family:Source Code Pro;-inkscape-font-specification:Source Code Pro Bold"
         xml:space="preserve"><tspan
           style="font-size:9px;font-style:normal;font-variant:normal;font-weight:bold;font-stretch:normal;fill:#ff7f2a;font-family:Source Code Pro;-inkscape-font-specification:Source Code Pro Bold"
           y="547.73071"
           x="173"
           id="tspan3036"
           sodipodi:role="line">SRR033839.fastq</tspan></text>
    </g>
    <g
       id="g4533"
       transform="translate(-332,128.16199)">
      <path
         sodipodi:nodetypes="cccccc"
         id="use4445"
         d="m 602.57312,472.23481 56.80896,0 2.12736,2.12737 0,13.74527 -58.93632,0.12736 z"
         style="fill:#f2f2f2;fill-opacity:1;fill-rule:nonzero;stroke:#282828;stroke-width:1;stroke-linecap:round;stroke-linejoin:round;stroke-miterlimit:4;stroke-opacity:1;stroke-dashoffset:0"
         inkscape:connector-curvature="0" />
      <use
         height="744.09448"
         width="1052.3622"
         transform="translate(-48.95872,235.87263)"
         id="use4447"
         xlink:href="#rect4388-3"
         y="0"
         x="0" />
      <text
         sodipodi:linespacing="125%"
         id="text3855"
         y="482.8718"
         x="603.51208"
         style="font-size:9px;font-style:normal;font-variant:normal;font-weight:bold;font-stretch:normal;line-height:125%;letter-spacing:0px;word-spacing:0px;fill:#000000;fill-opacity:1;stroke:none;font-family:Source Code Pro;-inkscape-font-specification:Source Code Pro Bold"
         xml:space="preserve"><tspan
           y="482.8718"
           x="603.51208"
           id="tspan3857"
           sodipodi:role="line">th_mimi9</tspan></text>
      <text
         xml:space="preserve"
         style="font-size:9px;font-style:normal;font-variant:normal;font-weight:bold;font-stretch:normal;line-height:125%;letter-spacing:0px;word-spacing:0px;fill:#ff7f2a;fill-opacity:1;stroke:none;font-family:Source Code Pro;-inkscape-font-specification:Source Code Pro Bold"
         x="605.46942"
         y="498.76984"
         id="text3861"
         sodipodi:linespacing="125%"><tspan
           style="font-size:9px;font-style:normal;font-variant:normal;font-weight:bold;font-stretch:normal;fill:#ff7f2a;font-family:Source Code Pro;-inkscape-font-specification:Source Code Pro Bold"
           sodipodi:role="line"
           id="tspan3863"
           x="605.46942"
           y="498.76984">accepted_hits.bam</tspan></text>
    </g>
    <g
       id="g4823"
       transform="translate(-326,108.16199)">
      <use
         x="0"
         y="0"
         xlink:href="#use4480"
         id="use4615"
         transform="translate(182.00002,-2.8002756e-5)"
         width="1052.3622"
         height="744.09448" />
      <g
         transform="translate(12,2.5000003)"
         id="g4608">
        <text
           xml:space="preserve"
           style="font-size:9px;font-style:normal;font-variant:normal;font-weight:bold;font-stretch:normal;line-height:125%;letter-spacing:0px;word-spacing:0px;fill:#000000;fill-opacity:1;stroke:none;font-family:Source Sans Pro;-inkscape-font-specification:Source Sans Pro Bold"
           x="894.80536"
           y="549.62115"
           id="text3022"
           sodipodi:linespacing="125%"><tspan
             sodipodi:role="line"
             id="tspan3024"
             x="894.80536"
             y="549.62115">cuffmerge</tspan></text>
      </g>
    </g>
    <path
       inkscape:connector-curvature="0"
       id="path4367"
       d="m 410.03151,268.73782 c 25,-5 40,-26.37564 40,-26.37564"
       style="fill:none;stroke:#000000;stroke-width:1px;stroke-linecap:round;stroke-linejoin:miter;stroke-opacity:1;marker-end:url(#Arrow2Lend)"
       sodipodi:nodetypes="cc" />
    <g
       id="g4438"
       transform="translate(-334.42688,164.23199)">
      <g
         id="g4541">
        <path
           sodipodi:nodetypes="cccccc"
           id="use4434"
           d="m 605,508.36218 56.80896,0 2.12736,2.12737 0,13.74527 L 605,524.36218 z"
           style="fill:#f2f2f2;fill-opacity:1;fill-rule:nonzero;stroke:#282828;stroke-width:1;stroke-linecap:round;stroke-linejoin:round;stroke-miterlimit:4;stroke-opacity:1;stroke-dashoffset:0"
           inkscape:connector-curvature="0" />
        <use
           x="0"
           y="0"
           xlink:href="#rect4388-3"
           id="use4436"
           transform="translate(-46.46816,272.12736)"
           width="1052.3622"
           height="744.09448" />
        <text
           xml:space="preserve"
           style="font-size:9px;font-style:normal;font-variant:normal;font-weight:bold;font-stretch:normal;line-height:125%;letter-spacing:0px;word-spacing:0px;fill:#000000;fill-opacity:1;stroke:none;font-family:Source Code Pro;-inkscape-font-specification:Source Code Pro Bold"
           x="612.91199"
           y="518.99921"
           id="text3851"
           sodipodi:linespacing="125%"><tspan
             sodipodi:role="line"
             id="tspan3853"
             x="612.91199"
             y="518.99921">th_mimi0</tspan></text>
        <text
           sodipodi:linespacing="125%"
           id="use4380"
           y="535.02454"
           x="607.95996"
           style="font-size:9px;font-style:normal;font-variant:normal;font-weight:bold;font-stretch:normal;line-height:125%;letter-spacing:0px;word-spacing:0px;fill:#5fbcd3;fill-opacity:1;stroke:none;font-family:Source Code Pro;-inkscape-font-specification:Source Code Pro Bold"
           xml:space="preserve"><tspan
             y="535.02454"
             x="607.95996"
             id="tspan4461"
             sodipodi:role="line"
             style="font-size:9px;font-style:normal;font-variant:normal;font-weight:bold;font-stretch:normal;fill:#5fbcd3;font-family:Source Code Pro;-inkscape-font-specification:Source Code Pro Bold">accepted_hits.bam</tspan></text>
      </g>
    </g>
    <path
       id="rect4388-3"
       style="fill:#f2f2f2;fill-opacity:1;fill-rule:nonzero;stroke:#282828;stroke-width:1;stroke-linecap:round;stroke-linejoin:round;stroke-miterlimit:4;stroke-opacity:1;stroke-dashoffset:0"
       d="m 748.46816,252.36218 0,13.87264 c 0,1.17856 -0.9488,2.12736 -2.12736,2.12736 l -92.74528,0 c -1.17856,0 -2.06368,-0.9488 -2.06368,-2.12736 0,-9.95755 0,-19.91509 0,-29.87264 l 56.80896,0 1.89328,2.12737 0,13.80895 c 16.15605,0.0637 22.07802,0.0637 38.23408,0.0637"
       inkscape:connector-curvature="0"
       sodipodi:nodetypes="cssscccccc" />
    <g
       id="g4581"
       transform="translate(-322,128.16199)">
      <g
         transform="translate(0,0.74527)"
         id="g4511">
        <path
           sodipodi:nodetypes="cccccc"
           id="use4503"
           d="m 788.06368,471.48954 56.80896,0 2.12736,2.12737 0,13.74527 -58.93632,0.12736 z"
           style="fill:#f2f2f2;fill-opacity:1;fill-rule:nonzero;stroke:#282828;stroke-width:1;stroke-linecap:round;stroke-linejoin:round;stroke-miterlimit:4;stroke-opacity:1;stroke-dashoffset:0"
           inkscape:connector-curvature="0" />
        <use
           x="0"
           y="0"
           xlink:href="#rect4388-3"
           id="use4505"
           transform="translate(136.53184,235.12736)"
           width="1052.3622"
           height="744.09448" />
      </g>
      <text
         xml:space="preserve"
         style="font-size:9px;font-style:normal;font-variant:normal;font-weight:bold;font-stretch:normal;line-height:125%;letter-spacing:0px;word-spacing:0px;fill:#ff7f2a;fill-opacity:1;stroke:none;font-family:Source Code Pro;-inkscape-font-specification:Source Code Pro Bold"
         x="795.90344"
         y="498.66031"
         id="text3879"
         sodipodi:linespacing="125%"><tspan
           sodipodi:role="line"
           id="tspan3881"
           x="795.90344"
           y="498.66031">transcripts.gtf</tspan></text>
      <text
         xml:space="preserve"
         style="font-size:9px;font-style:normal;font-variant:normal;font-weight:bold;font-stretch:normal;line-height:125%;letter-spacing:0px;word-spacing:0px;fill:#000000;fill-opacity:1;stroke:none;font-family:Source Code Pro;-inkscape-font-specification:Source Code Pro Bold"
         x="788.92163"
         y="482.8718"
         id="text4521"
         sodipodi:linespacing="125%"><tspan
           sodipodi:role="line"
           id="tspan4523"
           x="788.92163"
           y="482.8718">cl_mimi9</tspan></text>
    </g>
    <g
       id="g4573"
       transform="translate(-322,92.161987)">
      <g
         transform="translate(0,-0.929993)"
         id="g4515">
        <use
           x="0"
           y="0"
           xlink:href="#use4503"
           id="use4507"
           transform="translate(0,110)"
           width="1052.3622"
           height="744.09448" />
        <use
           x="0"
           y="0"
           xlink:href="#use4505"
           id="use4509"
           transform="translate(0,110)"
           width="1052.3622"
           height="744.09448" />
      </g>
      <text
         sodipodi:linespacing="125%"
         id="use4519"
         y="606.98505"
         x="795.90344"
         style="font-size:9px;font-style:normal;font-variant:normal;font-weight:bold;font-stretch:normal;line-height:125%;letter-spacing:0px;word-spacing:0px;fill:#5fbcd3;fill-opacity:1;stroke:none;font-family:Source Code Pro;-inkscape-font-specification:Source Code Pro Bold"
         xml:space="preserve"><tspan
           y="606.98505"
           x="795.90344"
           id="tspan4465"
           sodipodi:role="line">transcripts.gtf</tspan></text>
      <text
         xml:space="preserve"
         style="font-size:9px;font-style:normal;font-variant:normal;font-weight:bold;font-stretch:normal;line-height:125%;letter-spacing:0px;word-spacing:0px;fill:#000000;fill-opacity:1;stroke:none;font-family:Source Code Pro;-inkscape-font-specification:Source Code Pro Bold"
         x="788.89465"
         y="591.19653"
         id="text4521-8"
         sodipodi:linespacing="125%"><tspan
           sodipodi:role="line"
           id="tspan4523-8"
           x="788.89465"
           y="591.19653">cl_mimi0</tspan></text>
    </g>
    <text
       xml:space="preserve"
       style="font-size:12px;font-style:normal;font-variant:normal;font-weight:normal;font-stretch:normal;line-height:125%;letter-spacing:0px;word-spacing:0px;fill:#000000;fill-opacity:1;stroke:none;font-family:Arial;-inkscape-font-specification:Sans"
       x="806.35425"
       y="251.89764"
       id="text4569"
       sodipodi:linespacing="125%"
       transform="translate(0,308.2677)"><tspan
         sodipodi:role="line"
         id="tspan4571"
         x="806.35425"
         y="251.89764" /></text>
    <g
       id="g4829"
       transform="translate(-194,108.16201)">
      <use
         x="0"
         y="0"
         xlink:href="#use4615"
         id="use4816"
         transform="translate(91.99998,0)"
         width="1052.3622"
         height="744.09448" />
      <text
         sodipodi:linespacing="125%"
         id="text3026"
         y="553.41217"
         x="1002.7335"
         style="font-size:10px;font-style:normal;font-variant:normal;font-weight:bold;font-stretch:normal;line-height:125%;letter-spacing:0px;word-spacing:0px;fill:#000000;fill-opacity:1;stroke:none;font-family:Source Sans Pro;-inkscape-font-specification:Source Sans Pro Bold"
         xml:space="preserve"><tspan
           y="553.41217"
           x="1002.7335"
           id="tspan3028"
           sodipodi:role="line">cuffdiff</tspan></text>
    </g>
    <g
       id="g4842"
       transform="translate(-422,108.16199)">
      <path
         sodipodi:nodetypes="cccccc"
         id="use4834"
         d="m 1086.5318,526.36218 56.809,0 2.1274,2.12737 0,13.74527 -58.9364,0.12736 z"
         style="fill:#f2f2f2;fill-opacity:1;fill-rule:nonzero;stroke:#282828;stroke-width:1;stroke-linecap:round;stroke-linejoin:round;stroke-miterlimit:4;stroke-opacity:1;stroke-dashoffset:0"
         inkscape:connector-curvature="0" />
      <use
         height="744.09448"
         width="1052.3622"
         transform="translate(435,290)"
         id="use4836"
         xlink:href="#rect4388-3"
         y="0"
         x="0" />
      <text
         sodipodi:linespacing="125%"
         id="text3901"
         y="552.62115"
         x="1107.9213"
         style="font-size:9px;font-style:normal;font-variant:normal;font-weight:bold;font-stretch:normal;line-height:125%;letter-spacing:0px;word-spacing:0px;fill:#000000;fill-opacity:1;stroke:none;font-family:Source Code Pro;-inkscape-font-specification:Source Code Pro Bold"
         xml:space="preserve"><tspan
           y="552.62115"
           x="1107.9213"
           id="tspan3903"
           sodipodi:role="line">merged.gtf</tspan></text>
      <text
         sodipodi:linespacing="125%"
         id="text4838"
         y="536.5672"
         x="1088.9753"
         style="font-size:9px;font-style:normal;font-variant:normal;font-weight:bold;font-stretch:normal;line-height:125%;letter-spacing:0px;word-spacing:0px;fill:#000000;fill-opacity:1;stroke:none;font-family:Source Code Pro;-inkscape-font-specification:Source Code Pro Bold"
         xml:space="preserve"><tspan
           y="536.5672"
           x="1088.9753"
           id="tspan4840"
           sodipodi:role="line">merged_asm</tspan></text>
    </g>
    <g
       id="g4016"
       transform="translate(-320,108.16199)">
      <path
         sodipodi:nodetypes="cccccc"
         id="use3232"
         d="m 1211.5318,526.48954 56.809,0 2.1274,2.12737 0,13.74527 -58.9364,0.12736 z"
         style="fill:#f2f2f2;fill-opacity:1;fill-rule:nonzero;stroke:#282828;stroke-width:1;stroke-linecap:round;stroke-linejoin:round;stroke-miterlimit:4;stroke-opacity:1;stroke-dashoffset:0"
         inkscape:connector-curvature="0" />
      <use
         height="744.09448"
         width="1052.3622"
         transform="translate(560,290.12736)"
         id="use3234"
         xlink:href="#rect4388-3"
         y="0"
         x="0" />
      <text
         sodipodi:linespacing="125%"
         id="text3913"
         y="537.12653"
         x="1217.2091"
         style="font-size:9px;font-style:normal;font-variant:normal;font-weight:bold;font-stretch:normal;line-height:125%;letter-spacing:0px;word-spacing:0px;fill:#000000;fill-opacity:1;stroke:none;font-family:Source Code Pro;-inkscape-font-specification:Source Code Pro Bold"
         xml:space="preserve"><tspan
           y="537.12653"
           x="1217.2091"
           id="tspan3915"
           sodipodi:role="line">diff_mimi</tspan></text>
      <text
         sodipodi:linespacing="125%"
         id="text4010"
         y="553.81055"
         x="1243.5883"
         style="font-size:9px;font-style:normal;font-variant:normal;font-weight:bold;font-stretch:normal;line-height:125%;letter-spacing:0px;word-spacing:0px;fill:#000000;fill-opacity:1;stroke:none;font-family:Source Code Pro;-inkscape-font-specification:Source Code Pro Bold"
         xml:space="preserve"><tspan
           y="553.81055"
           x="1243.5883"
           id="tspan4012"
           sodipodi:role="line">*.diff</tspan></text>
    </g>
    <g
       id="g4216"
       transform="translate(-203,242.16199)">
      <use
         height="744.09448"
         width="1052.3622"
         transform="translate(-95,275)"
         id="use4214"
         xlink:href="#path4393"
         y="0"
         x="0" />
      <text
         sodipodi:linespacing="125%"
         id="text3010"
         y="560.89734"
         x="391.35986"
         style="font-size:10px;font-style:normal;font-variant:normal;font-weight:bold;font-stretch:normal;line-height:125%;letter-spacing:0px;word-spacing:0px;fill:#000000;fill-opacity:1;stroke:none;font-family:Arial;-inkscape-font-specification:Arial Bold"
         xml:space="preserve"><tspan
           y="560.89734"
           x="391.35986"
           id="tspan3012"
           sodipodi:role="line">bowtie2-index</tspan></text>
    </g>
    <g
       id="g4326"
       transform="translate(227.3408,245.16199)">
      <g
         id="g4278-0"
         transform="translate(-2.3408,81)">
        <path
           id="rect4388-3-7-7"
           style="fill:#ececec;fill-opacity:1;fill-rule:nonzero;stroke:#282828;stroke-width:1;stroke-linecap:round;stroke-linejoin:round;stroke-miterlimit:4;stroke-opacity:1;stroke-dashoffset:0"
           d="m 173.53184,493.36218 56.80896,0 1.89328,2.12737 0,13.80895 28.23408,0.0637 0,22.87264 c 0,1.17856 -0.9488,2.12736 -2.12736,2.12736 l -82.74528,0 c -1.17856,0 -2.06368,-0.9488 -2.06368,-2.12736 0,-12.95755 0,-25.91509 0,-38.87264 z"
           inkscape:connector-curvature="0"
           sodipodi:nodetypes="cccccssscc" />
        <text
           xml:space="preserve"
           style="font-size:9px;font-style:normal;font-variant:normal;font-weight:bold;font-stretch:normal;line-height:125%;letter-spacing:0px;word-spacing:0px;fill:#000000;fill-opacity:1;stroke:none;font-family:Source Code Pro;-inkscape-font-specification:Source Code Pro Bold"
           x="178.46207"
           y="503.77869"
           id="text4250-7"
           sodipodi:linespacing="125%"><tspan
             sodipodi:role="line"
             id="tspan4252-0"
             x="178.46207"
             y="503.77869">reference</tspan></text>
      </g>
      <text
         sodipodi:linespacing="125%"
         id="text3046"
         y="599.77869"
         x="174.87823"
         style="font-size:9px;font-style:normal;font-variant:normal;font-weight:bold;font-stretch:normal;line-height:125%;letter-spacing:0px;word-spacing:0px;fill:#000000;fill-opacity:1;stroke:none;font-family:Source Code Pro;-inkscape-font-specification:Source Code Pro Bold"
         xml:space="preserve"><tspan
           y="599.77869"
           x="174.87823"
           id="tspan3048"
           sodipodi:role="line">mimivirus.gff3</tspan></text>
      <text
         xml:space="preserve"
         style="font-size:9px;font-style:normal;font-variant:normal;font-weight:bold;font-stretch:normal;line-height:125%;letter-spacing:0px;word-spacing:0px;fill:#000000;fill-opacity:1;stroke:none;font-family:Source Code Pro;-inkscape-font-specification:Source Code Pro Bold"
         x="174.87823"
         y="613.77869"
         id="text4210"
         sodipodi:linespacing="125%"><tspan
           sodipodi:role="line"
           id="tspan4212"
           x="174.87823"
           y="613.77869">mimivirus.fa</tspan></text>
    </g>
    <path
       sodipodi:nodetypes="cccc"
       style="fill:none;stroke:#000000;stroke-width:2;stroke-linecap:round;stroke-linejoin:round;stroke-miterlimit:4;stroke-opacity:1;stroke-dasharray:none;marker-end:url(#Arrow1Mend)"
       d="m 401,857.52417 -65,-27 m -31,-13 -43,-17"
       id="path4377"
       inkscape:connector-curvature="0" />
    <text
       sodipodi:linespacing="125%"
       id="text3061-0"
       y="452.36218"
       x="210.57256"
       style="font-size:14px;font-style:normal;font-variant:normal;font-weight:bold;font-stretch:normal;line-height:125%;letter-spacing:0px;word-spacing:0px;fill:#000000;fill-opacity:1;stroke:none;font-family:Source Sans Pro;-inkscape-font-specification:Source Sans Pro Bold"
       xml:space="preserve"><tspan
         y="452.36218"
         x="210.57256"
         id="tspan3063-0"
         sodipodi:role="line">Tophat</tspan></text>
    <text
       xml:space="preserve"
       style="font-size:12px;font-style:normal;font-variant:normal;font-weight:bold;font-stretch:normal;line-height:125%;letter-spacing:0px;word-spacing:0px;fill:#ff7f2a;fill-opacity:1;stroke:none;font-family:Source Sans Pro;-inkscape-font-specification:Source Sans Pro Bold"
       x="21"
       y="628.64484"
       id="text4432"
       sodipodi:linespacing="125%"><tspan
         sodipodi:role="line"
         id="tspan4434"
         x="21"
         y="628.64484">Condition  A</tspan></text>
    <text
       xml:space="preserve"
       style="font-size:12px;font-style:normal;font-variant:normal;font-weight:bold;font-stretch:normal;line-height:125%;letter-spacing:0px;word-spacing:0px;fill:#5fbcd3;fill-opacity:1;stroke:none;font-family:Source Sans Pro;-inkscape-font-specification:Source Sans Pro Bold"
       x="21"
       y="700.96954"
       id="text4432-1"
       sodipodi:linespacing="125%"><tspan
         sodipodi:role="line"
         id="tspan4434-8"
         x="21"
         y="700.96954">Condition B</tspan></text>
    <g
       id="g4905"
       transform="translate(167.11111,-589.44372)">
      <path
         sodipodi:nodetypes="cccccc"
         inkscape:connector-curvature="0"
         id="rect4869"
         d="m 376,806.8059 0,11.11111 21.88889,0 L 409,812.36146 397.88889,806.8059 z"
         style="fill:none;stroke:#000000;stroke-width:1;stroke-linecap:round;stroke-linejoin:round;stroke-miterlimit:4;stroke-opacity:1;stroke-dasharray:none;stroke-dashoffset:0" />
      <text
         sodipodi:linespacing="125%"
         id="text4871"
         y="816.27344"
         x="377.25433"
         style="font-size:12px;font-style:normal;font-variant:normal;font-weight:bold;font-stretch:normal;line-height:125%;letter-spacing:0px;word-spacing:0px;fill:#000000;fill-opacity:1;stroke:none;font-family:Source Code Pro;-inkscape-font-specification:Source Code Pro Bold"
         xml:space="preserve"><tspan
           y="816.27344"
           x="377.25433"
           id="tspan4873"
           sodipodi:role="line">IN</tspan></text>
    </g>
    <g
       id="g4910"
       transform="translate(167.11111,-589.44372)">
      <path
         style="fill:none;stroke:#000000;stroke-width:1;stroke-linecap:round;stroke-linejoin:round;stroke-miterlimit:4;stroke-opacity:1;stroke-dasharray:none;stroke-dashoffset:0"
         d="m 376,826.8059 0,11.11111 21.88889,0 L 409,832.36146 397.88889,826.8059 z"
         id="path4878"
         inkscape:connector-curvature="0"
         sodipodi:nodetypes="cccccc" />
      <text
         sodipodi:linespacing="125%"
         id="text4871-9"
         y="836.27344"
         x="377.66269"
         style="font-size:12px;font-style:normal;font-variant:normal;font-weight:bold;font-stretch:normal;line-height:125%;letter-spacing:0px;word-spacing:0px;fill:#000000;fill-opacity:1;stroke:none;font-family:Source Code Pro;-inkscape-font-specification:Source Code Pro Bold"
         xml:space="preserve"><tspan
           y="836.27344"
           x="377.66269"
           id="tspan4873-7"
           sodipodi:role="line">OUT</tspan></text>
    </g>
    <g
       transform="matrix(0.66416842,0.74758298,-0.74758298,0.66416842,541.67171,-195.64779)"
       id="use4915">
      <path
         style="fill:#ff7f2a;stroke:#000000;stroke-width:1;stroke-linecap:round;stroke-linejoin:round;stroke-miterlimit:4;stroke-opacity:1;stroke-dasharray:none;stroke-dashoffset:0"
         d="m 376,806.8059 0,11.11111 21.88889,0 L 409,812.36146 397.88889,806.8059 z"
         id="path4215"
         inkscape:connector-curvature="0"
         sodipodi:nodetypes="cccccc" />
      <text
         xml:space="preserve"
         style="font-size:12px;font-style:normal;font-variant:normal;font-weight:bold;font-stretch:normal;line-height:125%;letter-spacing:0px;word-spacing:0px;fill:#000000;fill-opacity:1;stroke:none;font-family:Source Code Pro;-inkscape-font-specification:Source Code Pro Bold"
         x="377.25433"
         y="816.27344"
         id="text4217"
         sodipodi:linespacing="125%"><tspan
           sodipodi:role="line"
           id="tspan4219"
           x="377.25433"
           y="816.27344">IN</tspan></text>
    </g>
    <g
       transform="matrix(0.65449929,-0.75606261,0.75606261,0.65449929,-676.55544,446.33485)"
       id="use4921"
       style="fill:#000000;fill-opacity:1">
      <path
         style="fill:#5fbcd3;stroke:#000000;stroke-width:1;stroke-linecap:round;stroke-linejoin:round;stroke-miterlimit:4;stroke-opacity:1;stroke-dasharray:none;stroke-dashoffset:0"
         d="m 376,806.8059 0,11.11111 21.88889,0 L 409,812.36146 397.88889,806.8059 z"
         id="path4207"
         inkscape:connector-curvature="0"
         sodipodi:nodetypes="cccccc" />
      <text
         xml:space="preserve"
         style="font-size:12px;font-style:normal;font-variant:normal;font-weight:bold;font-stretch:normal;line-height:125%;letter-spacing:0px;word-spacing:0px;fill:#000000;fill-opacity:1;stroke:none;font-family:Source Code Pro;-inkscape-font-specification:Source Code Pro Bold"
         x="377.25433"
         y="816.27344"
         id="text4209"
         sodipodi:linespacing="125%"><tspan
           sodipodi:role="line"
           id="tspan4211"
           x="377.25433"
           y="816.27344">IN</tspan></text>
    </g>
    <g
       transform="matrix(0.70710678,-0.70710678,0.70710678,0.70710678,-610.84672,319.03382)"
       id="use4923">
      <path
         sodipodi:nodetypes="cccccc"
         inkscape:connector-curvature="0"
         id="path4231"
         d="m 376,826.8059 0,11.11111 21.88889,0 L 409,832.36146 397.88889,826.8059 z"
         style="fill:#ff7f2a;stroke:#000000;stroke-width:1;stroke-linecap:round;stroke-linejoin:round;stroke-miterlimit:4;stroke-opacity:1;stroke-dasharray:none;stroke-dashoffset:0" />
      <text
         xml:space="preserve"
         style="font-size:12px;font-style:normal;font-variant:normal;font-weight:bold;font-stretch:normal;line-height:125%;letter-spacing:0px;word-spacing:0px;fill:#000000;fill-opacity:1;stroke:none;font-family:Source Code Pro;-inkscape-font-specification:Source Code Pro Bold"
         x="377.66269"
         y="836.27344"
         id="text4233"
         sodipodi:linespacing="125%"><tspan
           sodipodi:role="line"
           id="tspan4235"
           x="377.66269"
           y="836.27344">OUT</tspan></text>
    </g>
    <g
       id="use4927"
       transform="matrix(0.70710678,0.70710678,-0.70710678,0.70710678,566.29014,-183.97766)">
      <path
         style="fill:#5fbcd3;stroke:#000000;stroke-width:1;stroke-linecap:round;stroke-linejoin:round;stroke-miterlimit:4;stroke-opacity:1;stroke-dasharray:none;stroke-dashoffset:0"
         d="m 376,826.8059 0,11.11111 21.88889,0 L 409,832.36146 397.88889,826.8059 z"
         id="path4239"
         inkscape:connector-curvature="0"
         sodipodi:nodetypes="cccccc" />
      <text
         sodipodi:linespacing="125%"
         id="text4241"
         y="836.27344"
         x="377.66269"
         style="font-size:12px;font-style:normal;font-variant:normal;font-weight:bold;font-stretch:normal;line-height:125%;letter-spacing:0px;word-spacing:0px;fill:#000000;fill-opacity:1;stroke:none;font-family:Source Code Pro;-inkscape-font-specification:Source Code Pro Bold"
         xml:space="preserve"><tspan
           y="836.27344"
           x="377.66269"
           id="tspan4243"
           sodipodi:role="line">OUT</tspan></text>
    </g>
    <use
       x="0"
       y="0"
       xlink:href="#use4915"
       id="use4933"
       transform="translate(189.21741,-3.9999971)"
       width="1052.3622"
       height="744.09448" />
    <use
       x="0"
       y="0"
       xlink:href="#use4921"
       id="use4935"
       transform="translate(186.46303,-3.9999971)"
       width="1052.3622"
       height="744.09448" />
    <use
       x="0"
       y="0"
       xlink:href="#use4923"
       id="use4937"
       transform="translate(194,2.8906254e-6)"
       width="1052.3622"
       height="744.09448" />
    <use
       x="0"
       y="0"
       xlink:href="#use4927"
       id="use4939"
       transform="translate(194.85674,-5.9999971)"
       width="1052.3622"
       height="744.09448" />
    <use
       x="0"
       y="0"
       xlink:href="#use4933"
       id="use4941"
       transform="translate(193.30648,2.8906251e-6)"
       width="1052.3622"
       height="744.09448" />
    <use
       x="0"
       y="0"
       xlink:href="#use4935"
       id="use4943"
       transform="translate(198,4.0000029)"
       width="1052.3622"
       height="744.09448" />
    <use
       x="0"
       y="0"
       xlink:href="#g4910"
       id="use4949"
       transform="translate(85.2262,415.10641)"
       width="1052.3622"
       height="744.09448" />
    <use
       x="0"
       y="0"
       xlink:href="#g4905"
       id="use4951"
       transform="translate(221,435.10641)"
       width="1052.3622"
       height="744.09448" />
    <use
       x="0"
       y="0"
       xlink:href="#use4949"
       id="use4953"
       transform="translate(226.7738,2.8906253e-6)"
       width="1052.3622"
       height="744.09448" />
    <g
       id="g3124"
       transform="translate(-38,108.16199)">
      <path
         sodipodi:nodetypes="cccc"
         inkscape:connector-curvature="0"
         id="path4024"
         d="m 406.73301,507.86219 c 0,0 45.32535,-71 169.26699,-71 m 33.23301,0 c 123.9416,0 226.5,98.5 226.5,98.5"
         style="fill:none;stroke:#000000;stroke-width:2;stroke-linecap:butt;stroke-linejoin:miter;stroke-miterlimit:4;stroke-opacity:1;stroke-dasharray:none;marker-end:url(#Arrow1Mend)" />
      <g
         transform="translate(200.11111,-375.55483)"
         id="use4955">
        <path
           style="fill:#ff7f2a;stroke:#000000;stroke-width:1;stroke-linecap:round;stroke-linejoin:round;stroke-miterlimit:4;stroke-opacity:1;stroke-dasharray:none;stroke-dashoffset:0"
           d="m 376,806.8059 0,11.11111 21.88889,0 L 409,812.36146 397.88889,806.8059 z"
           id="path4255"
           inkscape:connector-curvature="0"
           sodipodi:nodetypes="cccccc" />
        <text
           xml:space="preserve"
           style="font-size:12px;font-style:normal;font-variant:normal;font-weight:bold;font-stretch:normal;line-height:125%;letter-spacing:0px;word-spacing:0px;fill:#000000;fill-opacity:1;stroke:none;font-family:Source Code Pro;-inkscape-font-specification:Source Code Pro Bold"
           x="377.25433"
           y="816.27344"
           id="text4257"
           sodipodi:linespacing="125%"><tspan
             sodipodi:role="line"
             id="tspan4259"
             x="377.25433"
             y="816.27344">IN</tspan></text>
      </g>
    </g>
    <g
       id="g3128"
       transform="translate(-38,116.16199)">
      <g
         id="g4017">
        <path
           style="fill:none;stroke:#000000;stroke-width:2;stroke-linecap:butt;stroke-linejoin:miter;stroke-miterlimit:4;stroke-opacity:1;stroke-dasharray:none;marker-end:url(#Arrow1Mend)"
           d="m 406.73301,593.86221 c 0,0 45.32535,59 169.26699,59 m 33.23301,0 c 123.9416,0 226.5,-98.5 226.5,-98.5"
           id="use4208"
           inkscape:connector-curvature="0"
           sodipodi:nodetypes="cccc" />
        <g
           transform="translate(200.11111,-159.55483)"
           id="use4957">
          <path
             style="fill:#5fbcd3;stroke:#000000;stroke-width:1;stroke-linecap:round;stroke-linejoin:round;stroke-miterlimit:4;stroke-opacity:1;stroke-dasharray:none;stroke-dashoffset:0"
             d="m 376,806.8059 0,11.11111 21.88889,0 L 409,812.36146 397.88889,806.8059 z"
             id="path4247"
             inkscape:connector-curvature="0"
             sodipodi:nodetypes="cccccc" />
          <text
             xml:space="preserve"
             style="font-size:12px;font-style:normal;font-variant:normal;font-weight:bold;font-stretch:normal;line-height:125%;letter-spacing:0px;word-spacing:0px;fill:#000000;fill-opacity:1;stroke:none;font-family:Source Code Pro;-inkscape-font-specification:Source Code Pro Bold"
             x="377.25433"
             y="816.27344"
             id="text4249"
             sodipodi:linespacing="125%"><tspan
               sodipodi:role="line"
               id="tspan4251"
               x="377.25433"
               y="816.27344">IN</tspan></text>
        </g>
      </g>
    </g>
    <path
       inkscape:connector-curvature="0"
       id="path3924"
       d="m 401,843.52417 -67,-60.16199 m -24,-23 -88,-84.83801"
       style="fill:none;stroke:#000000;stroke-width:2;stroke-linecap:round;stroke-linejoin:round;stroke-miterlimit:4;stroke-opacity:1;stroke-dasharray:none;marker-end:url(#Arrow1Mend)"
       sodipodi:nodetypes="cccc" />
    <g
       transform="matrix(-0.71788227,-0.69616453,0.69616453,-0.71788227,38.254083,1628.3117)"
       id="use3926">
      <path
         style="fill:none;stroke:#000000;stroke-width:1;stroke-linecap:round;stroke-linejoin:round;stroke-miterlimit:4;stroke-opacity:1;stroke-dasharray:none;stroke-dashoffset:0"
         d="m 376,806.8059 0,11.11111 21.88889,0 L 409,812.36146 397.88889,806.8059 z"
         id="path3959"
         inkscape:connector-curvature="0"
         sodipodi:nodetypes="cccccc" />
      <text
         xml:space="preserve"
         style="font-size:12px;font-style:normal;font-variant:normal;font-weight:bold;font-stretch:normal;line-height:125%;letter-spacing:0px;word-spacing:0px;fill:#000000;fill-opacity:1;stroke:none;font-family:Source Code Pro;-inkscape-font-specification:Source Code Pro Bold"
         x="-391.74564"
         y="-808.44946"
         id="text3961"
         sodipodi:linespacing="125%"
         transform="scale(-1,-1)"><tspan
           sodipodi:role="line"
           id="tspan3963"
           x="-391.74564"
           y="-808.44946">IN</tspan></text>
    </g>
    <use
       x="0"
       y="0"
       xlink:href="#use3926"
       id="use3965"
       transform="matrix(0.92757186,-0.37364482,0.37364482,0.92757186,-266.69319,228.25737)"
       width="1052.3622"
       height="744.09448" />
    <path
       inkscape:connector-curvature="0"
       id="path3924-0"
       d="m 470,857.52417 c 266.80738,0 347.44645,-6.58867 356,-109 m 0.0674,-32.34477 0,-41.65523"
       style="fill:none;stroke:#000000;stroke-width:2;stroke-linecap:round;stroke-linejoin:round;stroke-miterlimit:4;stroke-opacity:1;stroke-dasharray:none;marker-end:url(#Arrow1Mend)"
       sodipodi:nodetypes="cccc" />
    <path
       sodipodi:nodetypes="cccc"
       style="fill:none;stroke:#000000;stroke-width:2;stroke-linecap:round;stroke-linejoin:round;stroke-miterlimit:4;stroke-opacity:1;stroke-dasharray:none;marker-end:url(#Arrow1Mend)"
       d="m 470,857.52417 c 95.41834,0 128.34848,-4.94423 131.35221,-109.12561 m 0.3239,-32.87439 0,-45"
       id="path3991"
       inkscape:connector-curvature="0" />
    <use
       x="0"
       y="0"
       xlink:href="#g4905"
       id="use3993"
       transform="matrix(0,-1,1,0,378.52671,1291.6353)"
       width="1052.3622"
       height="744.09448" />
    <use
       x="0"
       y="0"
       xlink:href="#use3993"
       id="use3995"
       transform="translate(224.55555,2.890625e-6)"
       width="1052.3622"
       height="744.09448" />
    <g
       id="g4061"
       transform="translate(558.7864,81.02082)">
      <g
         transform="translate(-180,-1.1039951)"
         id="g4051">
        <path
           sodipodi:nodetypes="cccccc"
           id="use4023"
           d="m 244.97327,822.68517 34.9322,0 1.30813,1.30813 0,8.45206 -36.24033,0.0783 z"
           style="fill:#f2f2f2;fill-opacity:1;fill-rule:nonzero;stroke:#282828;stroke-width:0.61490655;stroke-linecap:round;stroke-linejoin:round;stroke-miterlimit:4;stroke-opacity:1;stroke-dashoffset:0"
           inkscape:connector-curvature="0" />
        <use
           x="0"
           y="0"
           xlink:href="#rect4388-3"
           id="use4025"
           transform="matrix(0.61490654,0,0,0.61490654,-155.65792,677.34452)"
           width="1052.3622"
           height="744.09448" />
      </g>
      <use
         height="744.09448"
         width="1052.3622"
         transform="translate(-319.36544,610.53246)"
         id="use4027"
         xlink:href="#g4905"
         y="0"
         x="0" />
      <use
         height="744.09448"
         width="1052.3622"
         transform="translate(-319.36544,610.53246)"
         id="use4029"
         xlink:href="#g4910"
         y="0"
         x="0" />
      <use
         height="744.09448"
         width="1052.3622"
         transform="matrix(0.71428571,0,0,0.5859941,-276.42857,696.14961)"
         id="use4031"
         xlink:href="#path4393"
         y="0"
         x="0" />
      <text
         sodipodi:linespacing="125%"
         id="text4033"
         y="834.58765"
         x="136"
         style="font-size:12px;font-style:normal;font-variant:normal;font-weight:bold;font-stretch:normal;line-height:125%;letter-spacing:0px;word-spacing:0px;fill:#000000;fill-opacity:1;stroke:none;font-family:Source Sans Pro;-inkscape-font-specification:Source Sans Pro Bold"
         xml:space="preserve"><tspan
           y="834.58765"
           x="136"
           id="tspan4035"
           sodipodi:role="line">Directory</tspan></text>
      <text
         xml:space="preserve"
         style="font-size:12px;font-style:normal;font-variant:normal;font-weight:bold;font-stretch:normal;line-height:125%;letter-spacing:0px;word-spacing:0px;fill:#000000;fill-opacity:1;stroke:none;font-family:Source Sans Pro;-inkscape-font-specification:Source Sans Pro Bold"
         x="136"
         y="864.25818"
         id="text4037"
         sodipodi:linespacing="125%"><tspan
           sodipodi:role="line"
           id="tspan4039"
           x="136"
           y="864.25818">Program</tspan></text>
      <text
         sodipodi:linespacing="125%"
         id="text4043"
         y="836.25818"
         x="269"
         style="font-size:12px;font-style:normal;font-variant:normal;font-weight:bold;font-stretch:normal;line-height:125%;letter-spacing:0px;word-spacing:0px;fill:#000000;fill-opacity:1;stroke:none;font-family:Source Sans Pro;-inkscape-font-specification:Source Sans Pro Bold"
         xml:space="preserve"><tspan
           y="836.25818"
           x="269"
           id="tspan4045"
           sodipodi:role="line">Input</tspan></text>
      <text
         xml:space="preserve"
         style="font-size:12px;font-style:normal;font-variant:normal;font-weight:bold;font-stretch:normal;line-height:125%;letter-spacing:0px;word-spacing:0px;fill:#000000;fill-opacity:1;stroke:none;font-family:Source Sans Pro;-inkscape-font-specification:Source Sans Pro Bold"
         x="269.37201"
         y="856.3302"
         id="text4047"
         sodipodi:linespacing="125%"><tspan
           sodipodi:role="line"
           id="tspan4049"
           x="269.37201"
           y="856.3302">Output</tspan></text>
      <text
         sodipodi:linespacing="125%"
         id="text4055"
         y="805.36218"
         x="64"
         style="font-size:14px;font-style:normal;font-variant:normal;font-weight:bold;font-stretch:normal;line-height:125%;letter-spacing:0px;word-spacing:0px;fill:#000000;fill-opacity:1;stroke:none;font-family:Source Sans Pro;-inkscape-font-specification:Source Sans Pro Bold"
         xml:space="preserve"><tspan
           y="805.36218"
           x="64"
           id="tspan4057"
           sodipodi:role="line">Legend</tspan></text>
      <rect
         ry="4.1868329"
         transform="translate(0,308.2677)"
         y="484.09448"
         x="60"
         height="85"
         width="255"
         id="rect4059"
         style="fill:none;stroke:#000000;stroke-width:1;stroke-linecap:round;stroke-linejoin:round;stroke-miterlimit:4;stroke-opacity:1;stroke-dasharray:none;stroke-dashoffset:0" />
    </g>
    <text
       sodipodi:linespacing="125%"
       id="text4090"
       y="482.52417"
       x="413.20615"
       style="font-size:12px;font-style:normal;font-variant:normal;font-weight:bold;font-stretch:normal;text-align:center;line-height:125%;letter-spacing:0px;word-spacing:0px;text-anchor:middle;fill:#000000;fill-opacity:1;stroke:none;font-family:Source Sans Pro;-inkscape-font-specification:Source Sans Pro Bold"
       xml:space="preserve"><tspan
         y="482.52417"
         x="413.20615"
         sodipodi:role="line"
         id="tspan4142">2. Assembling transcripts</tspan><tspan
         y="497.52417"
         x="413.20615"
         sodipodi:role="line"
         id="tspan4146">from each sample</tspan><tspan
         y="512.52417"
         x="413.20615"
         sodipodi:role="line"
         id="tspan4098" /></text>
    <path
       style="fill:none;stroke:#000000;stroke-width:2;stroke-linecap:butt;stroke-linejoin:miter;stroke-miterlimit:4;stroke-opacity:1;stroke-dasharray:none"
       d="m 413,620.52417 0,-120"
       id="path4094"
       inkscape:connector-curvature="0" />
    <path
       inkscape:connector-curvature="0"
       id="path4096"
       d="m 601.00002,620.52417 0,-120"
       style="fill:none;stroke:#000000;stroke-width:2;stroke-linecap:butt;stroke-linejoin:miter;stroke-miterlimit:4;stroke-opacity:1;stroke-dasharray:none" />
    <text
       sodipodi:linespacing="125%"
       id="text4124"
       y="482.36218"
       x="824.56799"
       style="font-size:12px;font-style:normal;font-variant:normal;font-weight:bold;font-stretch:normal;text-align:center;line-height:125%;letter-spacing:0px;word-spacing:0px;text-anchor:middle;fill:#000000;fill-opacity:1;stroke:none;font-family:Source Sans Pro;-inkscape-font-specification:Source Sans Pro Bold"
       xml:space="preserve"><tspan
         y="482.36218"
         x="824.56799"
         sodipodi:role="line"
         id="tspan4128">4. Identifying differetially expressed</tspan><tspan
         y="497.36218"
         x="824.56799"
         sodipodi:role="line"
         id="tspan4173">genes and transcripts</tspan></text>
    <text
       xml:space="preserve"
       style="font-size:12px;font-style:normal;font-variant:normal;font-weight:bold;font-stretch:normal;text-align:center;line-height:125%;letter-spacing:0px;word-spacing:0px;text-anchor:middle;fill:#000000;fill-opacity:1;stroke:none;font-family:Source Sans Pro;-inkscape-font-specification:Source Sans Pro Bold"
       x="600.75751"
       y="483.55618"
       id="text4148"
       sodipodi:linespacing="125%"><tspan
         id="tspan4152"
         sodipodi:role="line"
         x="600.75751"
         y="483.55618">3. Merge transcriptome</tspan><tspan
         sodipodi:role="line"
         x="600.75751"
         y="498.55618"
         id="tspan4158">annotations</tspan><tspan
         id="tspan4154"
         sodipodi:role="line"
         x="600.75751"
         y="513.55615" /></text>
    <path
       style="fill:none;stroke:#000000;stroke-width:2;stroke-linecap:butt;stroke-linejoin:miter;stroke-miterlimit:4;stroke-opacity:1;stroke-dasharray:none"
       d="m 825,620.52417 0,-120"
       id="path4160"
       inkscape:connector-curvature="0" />
    <use
       x="0"
       y="0"
       xlink:href="#g4910"
       id="use4162"
       transform="matrix(0,1,-1,0,1183.4733,131.52417)"
       width="1052.3622"
       height="744.09448" />
    <g
       id="g4166"
       transform="translate(0,84.161987)">
      <use
         height="744.09448"
         width="1052.3622"
         transform="matrix(0.85714286,0,0,0.85714286,494.28571,405.33745)"
         id="use4164"
         xlink:href="#path4393"
         y="0"
         x="0" />
      <text
         sodipodi:linespacing="125%"
         id="text3065"
         y="650.46271"
         x="912.38013"
         style="font-size:9px;font-style:normal;font-variant:normal;font-weight:bold;font-stretch:normal;line-height:125%;letter-spacing:0px;word-spacing:0px;fill:#000000;fill-opacity:1;stroke:none;font-family:Source Sans Pro;-inkscape-font-specification:Source Sans Pro Bold"
         xml:space="preserve"><tspan
           y="650.46271"
           x="912.38013"
           id="tspan3067"
           sodipodi:role="line">cummeRbund</tspan></text>
    </g>
    <g
       id="g4189"
       style="stroke-width:2;stroke-miterlimit:4;stroke-dasharray:none">
      <path
         sodipodi:nodetypes="ccc"
         inkscape:connector-curvature="0"
         id="path4175"
         d="m 336,482.36218 0,-20 299,0"
         style="fill:none;stroke:#000000;stroke-width:2;stroke-linecap:butt;stroke-linejoin:miter;stroke-miterlimit:4;stroke-opacity:1;stroke-dasharray:none" />
      <use
         height="744.09448"
         width="1052.3622"
         transform="matrix(-1,0,0,1,1266,0)"
         id="use4177"
         xlink:href="#path4175"
         y="0"
         x="0"
         style="stroke-width:2;stroke-miterlimit:4;stroke-dasharray:none" />
    </g>
    <g
       id="g4185"
       transform="translate(-0.87794226,0)">
      <path
         style="fill:none;stroke:#000000;stroke-width:2;stroke-linecap:butt;stroke-linejoin:miter;stroke-miterlimit:4;stroke-opacity:1;stroke-dasharray:none"
         d="m 168,482.36218 0,-20 65,0"
         id="path4179"
         inkscape:connector-curvature="0"
         sodipodi:nodetypes="ccc" />
      <use
         height="744.09448"
         width="1052.3622"
         transform="matrix(-1,0,0,1,466,0)"
         id="use4183"
         xlink:href="#path4179"
         y="0"
         x="0"
         style="stroke-width:2;stroke-miterlimit:4;stroke-dasharray:none" />
    </g>
    <text
       xml:space="preserve"
       style="font-size:14px;font-style:normal;font-variant:normal;font-weight:bold;font-stretch:normal;line-height:125%;letter-spacing:0px;word-spacing:0px;fill:#000000;fill-opacity:1;stroke:none;font-family:Source Sans Pro;-inkscape-font-specification:Source Sans Pro Bold"
       x="605.4234"
       y="452.36218"
       id="text4193"
       sodipodi:linespacing="125%"><tspan
         sodipodi:role="line"
         id="tspan4195"
         x="605.4234"
         y="452.36218">Cufflinks</tspan></text>
    <g
       id="g4133"
       transform="translate(26,108.16199)"
       style="stroke-width:2;stroke-miterlimit:4;stroke-dasharray:none">
      <text
         sodipodi:linespacing="125%"
         id="text4082"
         y="381.7002"
         x="147.37325"
         style="font-size:12px;font-style:normal;font-variant:normal;font-weight:bold;font-stretch:normal;line-height:125%;letter-spacing:0px;word-spacing:0px;fill:#000000;fill-opacity:1;stroke:none;font-family:Source Sans Pro;-inkscape-font-specification:Source Sans Pro Bold"
         xml:space="preserve"><tspan
           y="381.7002"
           x="147.37325"
           id="tspan4084"
           sodipodi:role="line">1. Mapping/Alignment</tspan></text>
      <use
         x="0"
         y="0"
         xlink:href="#path4094"
         id="use4122"
         transform="translate(-213,-108.16199)"
         width="1052.3622"
         height="744.09448"
         style="stroke-width:2;stroke-miterlimit:4;stroke-dasharray:none" />
    </g>
    <g
       transform="translate(26,490)"
       id="g4197">
      <text
         xml:space="preserve"
         style="font-size:12px;font-style:normal;font-variant:normal;font-weight:bold;font-stretch:normal;line-height:125%;letter-spacing:0px;word-spacing:0px;fill:#000000;fill-opacity:1;stroke:none;font-family:Source Sans Pro;-inkscape-font-specification:Source Sans Pro Bold"
         x="162.19916"
         y="402.36218"
         id="text4199"
         sodipodi:linespacing="125%"><tspan
           sodipodi:role="line"
           id="tspan4201"
           x="162.19916"
           y="402.36218">0. Index creation</tspan></text>
    </g>
    <text
       xml:space="preserve"
       style="font-size:14px;font-style:normal;font-variant:normal;font-weight:bold;font-stretch:normal;line-height:125%;letter-spacing:0px;word-spacing:0px;fill:#000000;fill-opacity:1;stroke:none;font-family:Source Sans Pro;-inkscape-font-specification:Source Sans Pro Bold"
       x="206.47044"
       y="932.36218"
       id="text4261"
       sodipodi:linespacing="125%"><tspan
         sodipodi:role="line"
         id="tspan4263"
         x="206.47044"
         y="932.36218">Bowtie2</tspan></text>
    <g
       transform="matrix(-1,0,0,-1,465.12206,1374.7244)"
       id="g4265">
      <path
         sodipodi:nodetypes="ccc"
         inkscape:connector-curvature="0"
         id="path4267"
         d="m 168,482.36218 0,-20 65,0"
         style="fill:none;stroke:#000000;stroke-width:2;stroke-linecap:butt;stroke-linejoin:miter;stroke-miterlimit:4;stroke-opacity:1;stroke-dasharray:none" />
      <use
         style="stroke-width:2;stroke-miterlimit:4;stroke-dasharray:none"
         x="0"
         y="0"
         xlink:href="#path4179"
         id="use4269"
         transform="matrix(-1,0,0,1,466,0)"
         width="1052.3622"
         height="744.09448" />
    </g>
  </g>
</svg>
